Jump Bikes in Sacramento
…
#get ride counts in tracts
ride_in_tract <- st_join(start_sf, jump_tracts, join = st_within)

## although coordinates are longitude/latitude, st_within assumes that they are planar

ride_count <- count(as_tibble(ride_in_tract), GEOID.x) %>%
  rename(GEOID = GEOID.x, start_count = n) %>%
  print()

## # A tibble: 103 x 2
##    GEOID       start_count
##    <chr>             <int>
##  1 06067000100          25
##  2 06067000200          79
##  3 06067000300         153
##  4 06067000400         580
##  5 06067000500         855
##  6 06067000600         354
##  7 06067000700        2365
##  8 06067000800         732
##  9 06067001101        5610
## 10 06067001200        1837
## #  with 93 more rows
…
